MAHE,,CHRISTIAN,1 RUE DES VILLENEUVES,35650,LE MANS,0600450310,0299696970,DINARD,,FRANCAISE,FRANCE,01011990,169000737020050,RENNES,,MANUTENTIONNAIRE
LORAND,,LUCILE,50 RUE ERNEST RENAN,56000,VANNES,0620854420,0297532586,RENNES,35,FRANCAISE,FRANCE,19101985,285351523526442,RENNES,,
LEGROS,,SOPHIE,10 RUE DE LA TOUR,45000,ORLEANS,0625434654,0229542346,RENNES,35,FRANCAISE,FRANCE,25041990,290355424325456,ORLEANS,,
ROGER,THEBAULT,MARINNE,11 IMPASSE DES POMMIERS,35310,CHAVAGNE,0612241378,0299642259,RENNES,35,FRANCAISE,FRANCE,24061986,286351812423802,RENNES,,ELECTRICIEN
DUBOT,,PIERRE,6 RUE DU 11 NOVEMBRE 1918,35000,RENNES,0650481116,,RENNES,35,FRANCAISE,FRANCE,10011992,192013521035611,RENNES,,
AIT FAHLA,,IDRISS,18 RUE DU TERTRE,56490,LA TRINITE PORHOET,0625164516,0299211521,RABAT,99,FRANCAISE,,10121990,190129901214091,,SMEBA,,
LUCIE,,THERESE,9 RUE DE LA JOLIE,35000,RENNES,0299660300,,RENNES,33,FRANCAISE,FRANCE,11081993,200701023808066,RENNES,,OPERATRICE DE SAISIE
DERRIEN,,JEAN BERNARD,ALLEE DE LA FOUGERES,44000,NANTES,0650600310,0966100000,BAZOUGES,35,,FRANCE,10101978,190100323307835,,,MANOEUVRE